<?xml version="1.0" encoding="UTF-8" standalone="no"?>
<svg
   id="Layer_1"
   data-name="Layer 1"
   viewBox="0 0 52.065747 52.126988"
   version="1.1"
   sodipodi:docname="pqHTGUnstructuredGrid.svg"
   inkscape:version="1.3 (0e150ed6c4, 2023-07-21)"
   width="52.065746"
   height="52.126987"
   xmlns:inkscape="http://www.inkscape.org/namespaces/inkscape"
   xmlns:sodipodi="http://sodipodi.sourceforge.net/DTD/sodipodi-0.dtd"
   xmlns="http://www.w3.org/2000/svg"
   xmlns:svg="http://www.w3.org/2000/svg"
   xmlns:rdf="http://www.w3.org/1999/02/22-rdf-syntax-ns#"
   xmlns:cc="http://creativecommons.org/ns#"
   xmlns:dc="http://purl.org/dc/elements/1.1/">
  <defs
     id="defs6" />
  <sodipodi:namedview
     id="namedview6"
     pagecolor="#ffffff"
     bordercolor="#000000"
     borderopacity="0.25"
     inkscape:showpageshadow="2"
     inkscape:pageopacity="0.0"
     inkscape:pagecheckerboard="0"
     inkscape:deskcolor="#d1d1d1"
     inkscape:zoom="13.703827"
     inkscape:cx="22.438987"
     inkscape:cy="24.409239"
     inkscape:window-width="1920"
     inkscape:window-height="1155"
     inkscape:window-x="0"
     inkscape:window-y="1463"
     inkscape:window-maximized="1"
     inkscape:current-layer="Layer_1" />
  <title
     id="title1">SVG_Artboards</title>
  <rect
     style="fill:none;fill-opacity:1;stroke:#000000;stroke-width:3.90433;stroke-dasharray:none;stroke-dashoffset:8.52598;stroke-opacity:1"
     id="rect9"
     width="20.095669"
     height="44.095665"
     x="3.4569714"
     y="3.9885638"
     ry="0" />
  <rect
     style="fill:none;fill-opacity:1;stroke:#000000;stroke-width:3.584;stroke-dasharray:none;stroke-dashoffset:8.52598;stroke-opacity:1"
     id="rect10"
     width="20.415995"
     height="20.415997"
     x="28.319696"
     y="3.6967876"
     ry="0" />
  <rect
     style="fill:none;fill-opacity:1;stroke:#000000;stroke-width:3.28451;stroke-dasharray:none;stroke-dashoffset:8.52598;stroke-opacity:1"
     id="rect10-28-3-6"
     width="7.7154822"
     height="7.715487"
     x="28.215559"
     y="28.933058"
     ry="0" />
  <rect
     style="fill:none;fill-opacity:1;stroke:#000000;stroke-width:3.28451;stroke-dasharray:none;stroke-dashoffset:8.52598;stroke-opacity:1"
     id="rect10-28-3-6-5"
     width="7.7154822"
     height="7.715487"
     x="41.064087"
     y="28.912695"
     ry="0" />
  <rect
     style="fill:none;fill-opacity:1;stroke:#000000;stroke-width:3.28451;stroke-dasharray:none;stroke-dashoffset:8.52598;stroke-opacity:1"
     id="rect10-28-3-6-3"
     width="7.7154822"
     height="7.715487"
     x="28.291811"
     y="40.971771"
     ry="0" />
  <rect
     style="fill:none;fill-opacity:1;stroke:#000000;stroke-width:3.28451;stroke-dasharray:none;stroke-dashoffset:8.52598;stroke-opacity:1"
     id="rect10-28-3-6-5-5"
     width="7.7154822"
     height="7.715487"
     x="41.132862"
     y="40.979488"
     ry="0" />
  <metadata
     id="metadata10">
    <rdf:RDF>
      <cc:Work
         rdf:about="">
        <dc:title>SVG_Artboards</dc:title>
      </cc:Work>
    </rdf:RDF>
  </metadata>
</svg>
